ISO-10303-21;
HEADER;
/* Generated by software containing ST-Developer
 * from STEP Tools, Inc. (www.steptools.com) 
 */

FILE_DESCRIPTION(
/* description */ (''),
/* implementation_level */ '2;1');

FILE_NAME(
/* name */ 
'/Users/raybechard/Desktop/Education PolyVent acrylic lid _ top flat p
atten v4.step',
/* time_stamp */ '2022-10-11T21:50:30-04:00',
/* author */ (''),
/* organization */ (''),
/* preprocessor_version */ 'ST-DEVELOPER v19',
/* originating_system */ 'Autodesk Translation Framework v11.7.0.108',
/* authorisation */ '');

FILE_SCHEMA (('AUTOMOTIVE_DESIGN { 1 0 10303 214 3 1 1 }'));
ENDSEC;

DATA;
#10=MECHANICAL_DESIGN_GEOMETRIC_PRESENTATION_REPRESENTATION('',(#13),#1251);
#11=SHAPE_REPRESENTATION_RELATIONSHIP('SRR','None',#1258,#12);
#12=ADVANCED_BREP_SHAPE_REPRESENTATION('',(#14),#1250);
#13=STYLED_ITEM('',(#1267),#14);
#14=MANIFOLD_SOLID_BREP('Body1',#731);
#15=FACE_BOUND('',#119,.T.);
#16=FACE_BOUND('',#120,.T.);
#17=FACE_BOUND('',#121,.T.);
#18=FACE_BOUND('',#122,.T.);
#19=FACE_BOUND('',#123,.T.);
#20=FACE_BOUND('',#124,.T.);
#21=FACE_BOUND('',#125,.T.);
#22=FACE_BOUND('',#126,.T.);
#23=FACE_BOUND('',#127,.T.);
#24=FACE_BOUND('',#129,.T.);
#25=FACE_BOUND('',#130,.T.);
#26=FACE_BOUND('',#131,.T.);
#27=FACE_BOUND('',#132,.T.);
#28=FACE_BOUND('',#133,.T.);
#29=FACE_BOUND('',#134,.T.);
#30=FACE_BOUND('',#135,.T.);
#31=FACE_BOUND('',#136,.T.);
#32=FACE_BOUND('',#137,.T.);
#33=PLANE('',#778);
#34=PLANE('',#782);
#35=PLANE('',#786);
#36=PLANE('',#787);
#37=PLANE('',#788);
#38=PLANE('',#792);
#39=PLANE('',#796);
#40=PLANE('',#800);
#41=PLANE('',#804);
#42=PLANE('',#805);
#43=PLANE('',#806);
#44=PLANE('',#810);
#45=PLANE('',#817);
#46=PLANE('',#821);
#47=PLANE('',#822);
#48=FACE_OUTER_BOUND('',#84,.T.);
#49=FACE_OUTER_BOUND('',#85,.T.);
#50=FACE_OUTER_BOUND('',#86,.T.);
#51=FACE_OUTER_BOUND('',#87,.T.);
#52=FACE_OUTER_BOUND('',#88,.T.);
#53=FACE_OUTER_BOUND('',#89,.T.);
#54=FACE_OUTER_BOUND('',#90,.T.);
#55=FACE_OUTER_BOUND('',#91,.T.);
#56=FACE_OUTER_BOUND('',#92,.T.);
#57=FACE_OUTER_BOUND('',#93,.T.);
#58=FACE_OUTER_BOUND('',#94,.T.);
#59=FACE_OUTER_BOUND('',#95,.T.);
#60=FACE_OUTER_BOUND('',#96,.T.);
#61=FACE_OUTER_BOUND('',#97,.T.);
#62=FACE_OUTER_BOUND('',#98,.T.);
#63=FACE_OUTER_BOUND('',#99,.T.);
#64=FACE_OUTER_BOUND('',#100,.T.);
#65=FACE_OUTER_BOUND('',#101,.T.);
#66=FACE_OUTER_BOUND('',#102,.T.);
#67=FACE_OUTER_BOUND('',#103,.T.);
#68=FACE_OUTER_BOUND('',#104,.T.);
#69=FACE_OUTER_BOUND('',#105,.T.);
#70=FACE_OUTER_BOUND('',#106,.T.);
#71=FACE_OUTER_BOUND('',#107,.T.);
#72=FACE_OUTER_BOUND('',#108,.T.);
#73=FACE_OUTER_BOUND('',#109,.T.);
#74=FACE_OUTER_BOUND('',#110,.T.);
#75=FACE_OUTER_BOUND('',#111,.T.);
#76=FACE_OUTER_BOUND('',#112,.T.);
#77=FACE_OUTER_BOUND('',#113,.T.);
#78=FACE_OUTER_BOUND('',#114,.T.);
#79=FACE_OUTER_BOUND('',#115,.T.);
#80=FACE_OUTER_BOUND('',#116,.T.);
#81=FACE_OUTER_BOUND('',#117,.T.);
#82=FACE_OUTER_BOUND('',#118,.T.);
#83=FACE_OUTER_BOUND('',#128,.T.);
#84=EDGE_LOOP('',(#470,#471,#472,#473));
#85=EDGE_LOOP('',(#474,#475,#476,#477));
#86=EDGE_LOOP('',(#478,#479,#480,#481));
#87=EDGE_LOOP('',(#482,#483,#484,#485));
#88=EDGE_LOOP('',(#486,#487,#488,#489));
#89=EDGE_LOOP('',(#490,#491,#492,#493));
#90=EDGE_LOOP('',(#494,#495,#496,#497));
#91=EDGE_LOOP('',(#498,#499,#500,#501));
#92=EDGE_LOOP('',(#502,#503,#504,#505));
#93=EDGE_LOOP('',(#506,#507,#508,#509));
#94=EDGE_LOOP('',(#510,#511,#512,#513));
#95=EDGE_LOOP('',(#514,#515,#516,#517));
#96=EDGE_LOOP('',(#518,#519,#520,#521));
#97=EDGE_LOOP('',(#522,#523,#524,#525));
#98=EDGE_LOOP('',(#526,#527,#528,#529));
#99=EDGE_LOOP('',(#530,#531,#532,#533));
#100=EDGE_LOOP('',(#534,#535,#536,#537));
#101=EDGE_LOOP('',(#538,#539,#540,#541));
#102=EDGE_LOOP('',(#542,#543,#544,#545));
#103=EDGE_LOOP('',(#546,#547,#548,#549));
#104=EDGE_LOOP('',(#550,#551,#552,#553));
#105=EDGE_LOOP('',(#554,#555,#556,#557));
#106=EDGE_LOOP('',(#558,#559,#560,#561));
#107=EDGE_LOOP('',(#562,#563,#564,#565));
#108=EDGE_LOOP('',(#566,#567,#568,#569));
#109=EDGE_LOOP('',(#570,#571,#572,#573));
#110=EDGE_LOOP('',(#574,#575,#576,#577));
#111=EDGE_LOOP('',(#578,#579,#580,#581));
#112=EDGE_LOOP('',(#582,#583,#584,#585));
#113=EDGE_LOOP('',(#586,#587,#588,#589));
#114=EDGE_LOOP('',(#590,#591,#592,#593));
#115=EDGE_LOOP('',(#594,#595,#596,#597));
#116=EDGE_LOOP('',(#598,#599,#600,#601));
#117=EDGE_LOOP('',(#602,#603,#604,#605));
#118=EDGE_LOOP('',(#606,#607,#608,#609,#610,#611,#612,#613,#614,#615,#616,
#617,#618,#619,#620,#621,#622,#623,#624,#625,#626,#627,#628,#629,#630));
#119=EDGE_LOOP('',(#631));
#120=EDGE_LOOP('',(#632));
#121=EDGE_LOOP('',(#633));
#122=EDGE_LOOP('',(#634));
#123=EDGE_LOOP('',(#635));
#124=EDGE_LOOP('',(#636));
#125=EDGE_LOOP('',(#637));
#126=EDGE_LOOP('',(#638));
#127=EDGE_LOOP('',(#639));
#128=EDGE_LOOP('',(#640,#641,#642,#643,#644,#645,#646,#647,#648,#649,#650,
#651,#652,#653,#654,#655,#656,#657,#658,#659,#660,#661,#662,#663,#664));
#129=EDGE_LOOP('',(#665));
#130=EDGE_LOOP('',(#666));
#131=EDGE_LOOP('',(#667));
#132=EDGE_LOOP('',(#668));
#133=EDGE_LOOP('',(#669));
#134=EDGE_LOOP('',(#670));
#135=EDGE_LOOP('',(#671));
#136=EDGE_LOOP('',(#672));
#137=EDGE_LOOP('',(#673));
#138=LINE('',#1046,#198);
#139=LINE('',#1052,#199);
#140=LINE('',#1058,#200);
#141=LINE('',#1064,#201);
#142=LINE('',#1070,#202);
#143=LINE('',#1076,#203);
#144=LINE('',#1082,#204);
#145=LINE('',#1088,#205);
#146=LINE('',#1094,#206);
#147=LINE('',#1101,#207);
#148=LINE('',#1104,#208);
#149=LINE('',#1110,#209);
#150=LINE('',#1113,#210);
#151=LINE('',#1115,#211);
#152=LINE('',#1116,#212);
#153=LINE('',#1122,#213);
#154=LINE('',#1125,#214);
#155=LINE('',#1127,#215);
#156=LINE('',#1128,#216);
#157=LINE('',#1134,#217);
#158=LINE('',#1137,#218);
#159=LINE('',#1139,#219);
#160=LINE('',#1140,#220);
#161=LINE('',#1143,#221);
#162=LINE('',#1145,#222);
#163=LINE('',#1146,#223);
#164=LINE('',#1149,#224);
#165=LINE('',#1151,#225);
#166=LINE('',#1152,#226);
#167=LINE('',#1158,#227);
#168=LINE('',#1161,#228);
#169=LINE('',#1163,#229);
#170=LINE('',#1164,#230);
#171=LINE('',#1170,#231);
#172=LINE('',#1173,#232);
#173=LINE('',#1175,#233);
#174=LINE('',#1176,#234);
#175=LINE('',#1182,#235);
#176=LINE('',#1185,#236);
#177=LINE('',#1187,#237);
#178=LINE('',#1188,#238);
#179=LINE('',#1194,#239);
#180=LINE('',#1197,#240);
#181=LINE('',#1199,#241);
#182=LINE('',#1200,#242);
#183=LINE('',#1203,#243);
#184=LINE('',#1205,#244);
#185=LINE('',#1206,#245);
#186=LINE('',#1209,#246);
#187=LINE('',#1211,#247);
#188=LINE('',#1212,#248);
#189=LINE('',#1218,#249);
#190=LINE('',#1221,#250);
#191=LINE('',#1223,#251);
#192=LINE('',#1224,#252);
#193=LINE('',#1230,#253);
#194=LINE('',#1236,#254);
#195=LINE('',#1239,#255);
#196=LINE('',#1241,#256);
#197=LINE('',#1242,#257);
#198=VECTOR('',#829,2.24999999999994);
#199=VECTOR('',#836,2.25000000000001);
#200=VECTOR('',#843,2.25000000000001);
#201=VECTOR('',#850,2.25000000000009);
#202=VECTOR('',#857,2.25000000000009);
#203=VECTOR('',#864,2.25);
#204=VECTOR('',#871,2.25000000000001);
#205=VECTOR('',#878,2.24999999999994);
#206=VECTOR('',#885,2.25000000000009);
#207=VECTOR('',#892,10.);
#208=VECTOR('',#895,10.);
#209=VECTOR('',#902,10.);
#210=VECTOR('',#905,10.);
#211=VECTOR('',#906,10.);
#212=VECTOR('',#907,10.);
#213=VECTOR('',#914,10.);
#214=VECTOR('',#917,10.);
#215=VECTOR('',#918,10.);
#216=VECTOR('',#919,10.);
#217=VECTOR('',#926,10.);
#218=VECTOR('',#929,10.);
#219=VECTOR('',#930,10.);
#220=VECTOR('',#931,10.);
#221=VECTOR('',#934,10.);
#222=VECTOR('',#935,10.);
#223=VECTOR('',#936,10.);
#224=VECTOR('',#939,10.);
#225=VECTOR('',#940,10.);
#226=VECTOR('',#941,10.);
#227=VECTOR('',#948,10.);
#228=VECTOR('',#951,10.);
#229=VECTOR('',#952,10.);
#230=VECTOR('',#953,10.);
#231=VECTOR('',#960,10.);
#232=VECTOR('',#963,10.);
#233=VECTOR('',#964,10.);
#234=VECTOR('',#965,10.);
#235=VECTOR('',#972,10.);
#236=VECTOR('',#975,10.);
#237=VECTOR('',#976,10.);
#238=VECTOR('',#977,10.);
#239=VECTOR('',#984,10.);
#240=VECTOR('',#987,10.);
#241=VECTOR('',#988,10.);
#242=VECTOR('',#989,10.);
#243=VECTOR('',#992,10.);
#244=VECTOR('',#993,10.);
#245=VECTOR('',#994,10.);
#246=VECTOR('',#997,10.);
#247=VECTOR('',#998,10.);
#248=VECTOR('',#999,10.);
#249=VECTOR('',#1006,10.);
#250=VECTOR('',#1009,10.);
#251=VECTOR('',#1010,10.);
#252=VECTOR('',#1011,10.);
#253=VECTOR('',#1018,10.);
#254=VECTOR('',#1025,10.);
#255=VECTOR('',#1028,10.);
#256=VECTOR('',#1029,10.);
#257=VECTOR('',#1030,10.);
#258=CIRCLE('',#746,2.24999999999994);
#259=CIRCLE('',#747,2.24999999999994);
#260=CIRCLE('',#749,2.25000000000001);
#261=CIRCLE('',#750,2.25000000000001);
#262=CIRCLE('',#752,2.25000000000001);
#263=CIRCLE('',#753,2.25000000000001);
#264=CIRCLE('',#755,2.25000000000009);
#265=CIRCLE('',#756,2.25000000000009);
#266=CIRCLE('',#758,2.25000000000009);
#267=CIRCLE('',#759,2.25000000000009);
#268=CIRCLE('',#761,2.25);
#269=CIRCLE('',#762,2.25);
#270=CIRCLE('',#764,2.25000000000001);
#271=CIRCLE('',#765,2.25000000000001);
#272=CIRCLE('',#767,2.24999999999994);
#273=CIRCLE('',#768,2.24999999999994);
#274=CIRCLE('',#770,2.25000000000009);
#275=CIRCLE('',#771,2.25000000000009);
#276=CIRCLE('',#773,18.8750000000003);
#277=CIRCLE('',#774,18.8750000000003);
#278=CIRCLE('',#776,10.0000000000007);
#279=CIRCLE('',#777,10.0000000000007);
#280=CIRCLE('',#780,10.0000000000007);
#281=CIRCLE('',#781,10.0000000000007);
#282=CIRCLE('',#784,10.0000000000004);
#283=CIRCLE('',#785,10.0000000000004);
#284=CIRCLE('',#790,10.);
#285=CIRCLE('',#791,10.);
#286=CIRCLE('',#794,9.99999999999994);
#287=CIRCLE('',#795,9.99999999999994);
#288=CIRCLE('',#798,9.99999999999984);
#289=CIRCLE('',#799,9.99999999999984);
#290=CIRCLE('',#802,10.0000000000002);
#291=CIRCLE('',#803,10.0000000000002);
#292=CIRCLE('',#808,10.0000000000003);
#293=CIRCLE('',#809,10.0000000000003);
#294=CIRCLE('',#812,18.8749999999999);
#295=CIRCLE('',#813,18.8749999999999);
#296=CIRCLE('',#815,10.0000000000007);
#297=CIRCLE('',#816,10.0000000000007);
#298=CIRCLE('',#819,10.0000000000003);
#299=CIRCLE('',#820,10.0000000000003);
#300=VERTEX_POINT('',#1043);
#301=VERTEX_POINT('',#1045);
#302=VERTEX_POINT('',#1049);
#303=VERTEX_POINT('',#1051);
#304=VERTEX_POINT('',#1055);
#305=VERTEX_POINT('',#1057);
#306=VERTEX_POINT('',#1061);
#307=VERTEX_POINT('',#1063);
#308=VERTEX_POINT('',#1067);
#309=VERTEX_POINT('',#1069);
#310=VERTEX_POINT('',#1073);
#311=VERTEX_POINT('',#1075);
#312=VERTEX_POINT('',#1079);
#313=VERTEX_POINT('',#1081);
#314=VERTEX_POINT('',#1085);
#315=VERTEX_POINT('',#1087);
#316=VERTEX_POINT('',#1091);
#317=VERTEX_POINT('',#1093);
#318=VERTEX_POINT('',#1097);
#319=VERTEX_POINT('',#1098);
#320=VERTEX_POINT('',#1100);
#321=VERTEX_POINT('',#1102);
#322=VERTEX_POINT('',#1106);
#323=VERTEX_POINT('',#1108);
#324=VERTEX_POINT('',#1112);
#325=VERTEX_POINT('',#1114);
#326=VERTEX_POINT('',#1118);
#327=VERTEX_POINT('',#1120);
#328=VERTEX_POINT('',#1124);
#329=VERTEX_POINT('',#1126);
#330=VERTEX_POINT('',#1130);
#331=VERTEX_POINT('',#1132);
#332=VERTEX_POINT('',#1136);
#333=VERTEX_POINT('',#1138);
#334=VERTEX_POINT('',#1142);
#335=VERTEX_POINT('',#1144);
#336=VERTEX_POINT('',#1148);
#337=VERTEX_POINT('',#1150);
#338=VERTEX_POINT('',#1154);
#339=VERTEX_POINT('',#1156);
#340=VERTEX_POINT('',#1160);
#341=VERTEX_POINT('',#1162);
#342=VERTEX_POINT('',#1166);
#343=VERTEX_POINT('',#1168);
#344=VERTEX_POINT('',#1172);
#345=VERTEX_POINT('',#1174);
#346=VERTEX_POINT('',#1178);
#347=VERTEX_POINT('',#1180);
#348=VERTEX_POINT('',#1184);
#349=VERTEX_POINT('',#1186);
#350=VERTEX_POINT('',#1190);
#351=VERTEX_POINT('',#1192);
#352=VERTEX_POINT('',#1196);
#353=VERTEX_POINT('',#1198);
#354=VERTEX_POINT('',#1202);
#355=VERTEX_POINT('',#1204);
#356=VERTEX_POINT('',#1208);
#357=VERTEX_POINT('',#1210);
#358=VERTEX_POINT('',#1214);
#359=VERTEX_POINT('',#1216);
#360=VERTEX_POINT('',#1220);
#361=VERTEX_POINT('',#1222);
#362=VERTEX_POINT('',#1226);
#363=VERTEX_POINT('',#1228);
#364=VERTEX_POINT('',#1232);
#365=VERTEX_POINT('',#1234);
#366=VERTEX_POINT('',#1238);
#367=VERTEX_POINT('',#1240);
#368=EDGE_CURVE('',#300,#300,#258,.T.);
#369=EDGE_CURVE('',#300,#301,#138,.T.);
#370=EDGE_CURVE('',#301,#301,#259,.T.);
#371=EDGE_CURVE('',#302,#302,#260,.T.);
#372=EDGE_CURVE('',#302,#303,#139,.T.);
#373=EDGE_CURVE('',#303,#303,#261,.T.);
#374=EDGE_CURVE('',#304,#304,#262,.T.);
#375=EDGE_CURVE('',#304,#305,#140,.T.);
#376=EDGE_CURVE('',#305,#305,#263,.T.);
#377=EDGE_CURVE('',#306,#306,#264,.T.);
#378=EDGE_CURVE('',#306,#307,#141,.T.);
#379=EDGE_CURVE('',#307,#307,#265,.T.);
#380=EDGE_CURVE('',#308,#308,#266,.T.);
#381=EDGE_CURVE('',#308,#309,#142,.T.);
#382=EDGE_CURVE('',#309,#309,#267,.T.);
#383=EDGE_CURVE('',#310,#310,#268,.T.);
#384=EDGE_CURVE('',#310,#311,#143,.T.);
#385=EDGE_CURVE('',#311,#311,#269,.T.);
#386=EDGE_CURVE('',#312,#312,#270,.T.);
#387=EDGE_CURVE('',#312,#313,#144,.T.);
#388=EDGE_CURVE('',#313,#313,#271,.T.);
#389=EDGE_CURVE('',#314,#314,#272,.T.);
#390=EDGE_CURVE('',#314,#315,#145,.T.);
#391=EDGE_CURVE('',#315,#315,#273,.T.);
#392=EDGE_CURVE('',#316,#316,#274,.T.);
#393=EDGE_CURVE('',#316,#317,#146,.T.);
#394=EDGE_CURVE('',#317,#317,#275,.T.);
#395=EDGE_CURVE('',#318,#319,#276,.T.);
#396=EDGE_CURVE('',#318,#320,#147,.T.);
#397=EDGE_CURVE('',#321,#320,#277,.T.);
#398=EDGE_CURVE('',#319,#321,#148,.T.);
#399=EDGE_CURVE('',#319,#322,#278,.T.);
#400=EDGE_CURVE('',#323,#321,#279,.T.);
#401=EDGE_CURVE('',#322,#323,#149,.T.);
#402=EDGE_CURVE('',#322,#324,#150,.T.);
#403=EDGE_CURVE('',#325,#323,#151,.T.);
#404=EDGE_CURVE('',#324,#325,#152,.T.);
#405=EDGE_CURVE('',#324,#326,#280,.T.);
#406=EDGE_CURVE('',#327,#325,#281,.T.);
#407=EDGE_CURVE('',#326,#327,#153,.T.);
#408=EDGE_CURVE('',#326,#328,#154,.T.);
#409=EDGE_CURVE('',#329,#327,#155,.T.);
#410=EDGE_CURVE('',#328,#329,#156,.T.);
#411=EDGE_CURVE('',#328,#330,#282,.T.);
#412=EDGE_CURVE('',#331,#329,#283,.T.);
#413=EDGE_CURVE('',#330,#331,#157,.T.);
#414=EDGE_CURVE('',#330,#332,#158,.T.);
#415=EDGE_CURVE('',#333,#331,#159,.T.);
#416=EDGE_CURVE('',#332,#333,#160,.T.);
#417=EDGE_CURVE('',#332,#334,#161,.T.);
#418=EDGE_CURVE('',#335,#333,#162,.T.);
#419=EDGE_CURVE('',#334,#335,#163,.T.);
#420=EDGE_CURVE('',#334,#336,#164,.T.);
#421=EDGE_CURVE('',#337,#335,#165,.T.);
#422=EDGE_CURVE('',#336,#337,#166,.T.);
#423=EDGE_CURVE('',#336,#338,#284,.T.);
#424=EDGE_CURVE('',#339,#337,#285,.T.);
#425=EDGE_CURVE('',#338,#339,#167,.T.);
#426=EDGE_CURVE('',#338,#340,#168,.T.);
#427=EDGE_CURVE('',#341,#339,#169,.T.);
#428=EDGE_CURVE('',#340,#341,#170,.T.);
#429=EDGE_CURVE('',#340,#342,#286,.T.);
#430=EDGE_CURVE('',#343,#341,#287,.T.);
#431=EDGE_CURVE('',#342,#343,#171,.T.);
#432=EDGE_CURVE('',#342,#344,#172,.T.);
#433=EDGE_CURVE('',#345,#343,#173,.T.);
#434=EDGE_CURVE('',#344,#345,#174,.T.);
#435=EDGE_CURVE('',#344,#346,#288,.T.);
#436=EDGE_CURVE('',#347,#345,#289,.T.);
#437=EDGE_CURVE('',#346,#347,#175,.T.);
#438=EDGE_CURVE('',#346,#348,#176,.T.);
#439=EDGE_CURVE('',#349,#347,#177,.T.);
#440=EDGE_CURVE('',#348,#349,#178,.T.);
#441=EDGE_CURVE('',#348,#350,#290,.T.);
#442=EDGE_CURVE('',#351,#349,#291,.T.);
#443=EDGE_CURVE('',#350,#351,#179,.T.);
#444=EDGE_CURVE('',#350,#352,#180,.T.);
#445=EDGE_CURVE('',#353,#351,#181,.T.);
#446=EDGE_CURVE('',#352,#353,#182,.T.);
#447=EDGE_CURVE('',#352,#354,#183,.T.);
#448=EDGE_CURVE('',#355,#353,#184,.T.);
#449=EDGE_CURVE('',#354,#355,#185,.T.);
#450=EDGE_CURVE('',#354,#356,#186,.T.);
#451=EDGE_CURVE('',#357,#355,#187,.T.);
#452=EDGE_CURVE('',#356,#357,#188,.T.);
#453=EDGE_CURVE('',#356,#358,#292,.T.);
#454=EDGE_CURVE('',#359,#357,#293,.T.);
#455=EDGE_CURVE('',#358,#359,#189,.T.);
#456=EDGE_CURVE('',#358,#360,#190,.T.);
#457=EDGE_CURVE('',#361,#359,#191,.T.);
#458=EDGE_CURVE('',#360,#361,#192,.T.);
#459=EDGE_CURVE('',#360,#362,#294,.T.);
#460=EDGE_CURVE('',#363,#361,#295,.T.);
#461=EDGE_CURVE('',#362,#363,#193,.T.);
#462=EDGE_CURVE('',#362,#364,#296,.T.);
#463=EDGE_CURVE('',#365,#363,#297,.T.);
#464=EDGE_CURVE('',#364,#365,#194,.T.);
#465=EDGE_CURVE('',#364,#366,#195,.T.);
#466=EDGE_CURVE('',#367,#365,#196,.T.);
#467=EDGE_CURVE('',#366,#367,#197,.T.);
#468=EDGE_CURVE('',#366,#318,#298,.T.);
#469=EDGE_CURVE('',#320,#367,#299,.T.);
#470=ORIENTED_EDGE('',*,*,#368,.F.);
#471=ORIENTED_EDGE('',*,*,#369,.T.);
#472=ORIENTED_EDGE('',*,*,#370,.F.);
#473=ORIENTED_EDGE('',*,*,#369,.F.);
#474=ORIENTED_EDGE('',*,*,#371,.F.);
#475=ORIENTED_EDGE('',*,*,#372,.T.);
#476=ORIENTED_EDGE('',*,*,#373,.F.);
#477=ORIENTED_EDGE('',*,*,#372,.F.);
#478=ORIENTED_EDGE('',*,*,#374,.F.);
#479=ORIENTED_EDGE('',*,*,#375,.T.);
#480=ORIENTED_EDGE('',*,*,#376,.F.);
#481=ORIENTED_EDGE('',*,*,#375,.F.);
#482=ORIENTED_EDGE('',*,*,#377,.F.);
#483=ORIENTED_EDGE('',*,*,#378,.T.);
#484=ORIENTED_EDGE('',*,*,#379,.F.);
#485=ORIENTED_EDGE('',*,*,#378,.F.);
#486=ORIENTED_EDGE('',*,*,#380,.F.);
#487=ORIENTED_EDGE('',*,*,#381,.T.);
#488=ORIENTED_EDGE('',*,*,#382,.F.);
#489=ORIENTED_EDGE('',*,*,#381,.F.);
#490=ORIENTED_EDGE('',*,*,#383,.F.);
#491=ORIENTED_EDGE('',*,*,#384,.T.);
#492=ORIENTED_EDGE('',*,*,#385,.F.);
#493=ORIENTED_EDGE('',*,*,#384,.F.);
#494=ORIENTED_EDGE('',*,*,#386,.F.);
#495=ORIENTED_EDGE('',*,*,#387,.T.);
#496=ORIENTED_EDGE('',*,*,#388,.F.);
#497=ORIENTED_EDGE('',*,*,#387,.F.);
#498=ORIENTED_EDGE('',*,*,#389,.F.);
#499=ORIENTED_EDGE('',*,*,#390,.T.);
#500=ORIENTED_EDGE('',*,*,#391,.F.);
#501=ORIENTED_EDGE('',*,*,#390,.F.);
#502=ORIENTED_EDGE('',*,*,#392,.F.);
#503=ORIENTED_EDGE('',*,*,#393,.T.);
#504=ORIENTED_EDGE('',*,*,#394,.F.);
#505=ORIENTED_EDGE('',*,*,#393,.F.);
#506=ORIENTED_EDGE('',*,*,#395,.F.);
#507=ORIENTED_EDGE('',*,*,#396,.T.);
#508=ORIENTED_EDGE('',*,*,#397,.F.);
#509=ORIENTED_EDGE('',*,*,#398,.F.);
#510=ORIENTED_EDGE('',*,*,#399,.F.);
#511=ORIENTED_EDGE('',*,*,#398,.T.);
#512=ORIENTED_EDGE('',*,*,#400,.F.);
#513=ORIENTED_EDGE('',*,*,#401,.F.);
#514=ORIENTED_EDGE('',*,*,#402,.F.);
#515=ORIENTED_EDGE('',*,*,#401,.T.);
#516=ORIENTED_EDGE('',*,*,#403,.F.);
#517=ORIENTED_EDGE('',*,*,#404,.F.);
#518=ORIENTED_EDGE('',*,*,#405,.F.);
#519=ORIENTED_EDGE('',*,*,#404,.T.);
#520=ORIENTED_EDGE('',*,*,#406,.F.);
#521=ORIENTED_EDGE('',*,*,#407,.F.);
#522=ORIENTED_EDGE('',*,*,#408,.F.);
#523=ORIENTED_EDGE('',*,*,#407,.T.);
#524=ORIENTED_EDGE('',*,*,#409,.F.);
#525=ORIENTED_EDGE('',*,*,#410,.F.);
#526=ORIENTED_EDGE('',*,*,#411,.F.);
#527=ORIENTED_EDGE('',*,*,#410,.T.);
#528=ORIENTED_EDGE('',*,*,#412,.F.);
#529=ORIENTED_EDGE('',*,*,#413,.F.);
#530=ORIENTED_EDGE('',*,*,#414,.F.);
#531=ORIENTED_EDGE('',*,*,#413,.T.);
#532=ORIENTED_EDGE('',*,*,#415,.F.);
#533=ORIENTED_EDGE('',*,*,#416,.F.);
#534=ORIENTED_EDGE('',*,*,#417,.F.);
#535=ORIENTED_EDGE('',*,*,#416,.T.);
#536=ORIENTED_EDGE('',*,*,#418,.F.);
#537=ORIENTED_EDGE('',*,*,#419,.F.);
#538=ORIENTED_EDGE('',*,*,#420,.F.);
#539=ORIENTED_EDGE('',*,*,#419,.T.);
#540=ORIENTED_EDGE('',*,*,#421,.F.);
#541=ORIENTED_EDGE('',*,*,#422,.F.);
#542=ORIENTED_EDGE('',*,*,#423,.F.);
#543=ORIENTED_EDGE('',*,*,#422,.T.);
#544=ORIENTED_EDGE('',*,*,#424,.F.);
#545=ORIENTED_EDGE('',*,*,#425,.F.);
#546=ORIENTED_EDGE('',*,*,#426,.F.);
#547=ORIENTED_EDGE('',*,*,#425,.T.);
#548=ORIENTED_EDGE('',*,*,#427,.F.);
#549=ORIENTED_EDGE('',*,*,#428,.F.);
#550=ORIENTED_EDGE('',*,*,#429,.F.);
#551=ORIENTED_EDGE('',*,*,#428,.T.);
#552=ORIENTED_EDGE('',*,*,#430,.F.);
#553=ORIENTED_EDGE('',*,*,#431,.F.);
#554=ORIENTED_EDGE('',*,*,#432,.F.);
#555=ORIENTED_EDGE('',*,*,#431,.T.);
#556=ORIENTED_EDGE('',*,*,#433,.F.);
#557=ORIENTED_EDGE('',*,*,#434,.F.);
#558=ORIENTED_EDGE('',*,*,#435,.F.);
#559=ORIENTED_EDGE('',*,*,#434,.T.);
#560=ORIENTED_EDGE('',*,*,#436,.F.);
#561=ORIENTED_EDGE('',*,*,#437,.F.);
#562=ORIENTED_EDGE('',*,*,#438,.F.);
#563=ORIENTED_EDGE('',*,*,#437,.T.);
#564=ORIENTED_EDGE('',*,*,#439,.F.);
#565=ORIENTED_EDGE('',*,*,#440,.F.);
#566=ORIENTED_EDGE('',*,*,#441,.F.);
#567=ORIENTED_EDGE('',*,*,#440,.T.);
#568=ORIENTED_EDGE('',*,*,#442,.F.);
#569=ORIENTED_EDGE('',*,*,#443,.F.);
#570=ORIENTED_EDGE('',*,*,#444,.F.);
#571=ORIENTED_EDGE('',*,*,#443,.T.);
#572=ORIENTED_EDGE('',*,*,#445,.F.);
#573=ORIENTED_EDGE('',*,*,#446,.F.);
#574=ORIENTED_EDGE('',*,*,#447,.F.);
#575=ORIENTED_EDGE('',*,*,#446,.T.);
#576=ORIENTED_EDGE('',*,*,#448,.F.);
#577=ORIENTED_EDGE('',*,*,#449,.F.);
#578=ORIENTED_EDGE('',*,*,#450,.F.);
#579=ORIENTED_EDGE('',*,*,#449,.T.);
#580=ORIENTED_EDGE('',*,*,#451,.F.);
#581=ORIENTED_EDGE('',*,*,#452,.F.);
#582=ORIENTED_EDGE('',*,*,#453,.F.);
#583=ORIENTED_EDGE('',*,*,#452,.T.);
#584=ORIENTED_EDGE('',*,*,#454,.F.);
#585=ORIENTED_EDGE('',*,*,#455,.F.);
#586=ORIENTED_EDGE('',*,*,#456,.F.);
#587=ORIENTED_EDGE('',*,*,#455,.T.);
#588=ORIENTED_EDGE('',*,*,#457,.F.);
#589=ORIENTED_EDGE('',*,*,#458,.F.);
#590=ORIENTED_EDGE('',*,*,#459,.F.);
#591=ORIENTED_EDGE('',*,*,#458,.T.);
#592=ORIENTED_EDGE('',*,*,#460,.F.);
#593=ORIENTED_EDGE('',*,*,#461,.F.);
#594=ORIENTED_EDGE('',*,*,#462,.F.);
#595=ORIENTED_EDGE('',*,*,#461,.T.);
#596=ORIENTED_EDGE('',*,*,#463,.F.);
#597=ORIENTED_EDGE('',*,*,#464,.F.);
#598=ORIENTED_EDGE('',*,*,#465,.F.);
#599=ORIENTED_EDGE('',*,*,#464,.T.);
#600=ORIENTED_EDGE('',*,*,#466,.F.);
#601=ORIENTED_EDGE('',*,*,#467,.F.);
#602=ORIENTED_EDGE('',*,*,#468,.F.);
#603=ORIENTED_EDGE('',*,*,#467,.T.);
#604=ORIENTED_EDGE('',*,*,#469,.F.);
#605=ORIENTED_EDGE('',*,*,#396,.F.);
#606=ORIENTED_EDGE('',*,*,#469,.T.);
#607=ORIENTED_EDGE('',*,*,#466,.T.);
#608=ORIENTED_EDGE('',*,*,#463,.T.);
#609=ORIENTED_EDGE('',*,*,#460,.T.);
#610=ORIENTED_EDGE('',*,*,#457,.T.);
#611=ORIENTED_EDGE('',*,*,#454,.T.);
#612=ORIENTED_EDGE('',*,*,#451,.T.);
#613=ORIENTED_EDGE('',*,*,#448,.T.);
#614=ORIENTED_EDGE('',*,*,#445,.T.);
#615=ORIENTED_EDGE('',*,*,#442,.T.);
#616=ORIENTED_EDGE('',*,*,#439,.T.);
#617=ORIENTED_EDGE('',*,*,#436,.T.);
#618=ORIENTED_EDGE('',*,*,#433,.T.);
#619=ORIENTED_EDGE('',*,*,#430,.T.);
#620=ORIENTED_EDGE('',*,*,#427,.T.);
#621=ORIENTED_EDGE('',*,*,#424,.T.);
#622=ORIENTED_EDGE('',*,*,#421,.T.);
#623=ORIENTED_EDGE('',*,*,#418,.T.);
#624=ORIENTED_EDGE('',*,*,#415,.T.);
#625=ORIENTED_EDGE('',*,*,#412,.T.);
#626=ORIENTED_EDGE('',*,*,#409,.T.);
#627=ORIENTED_EDGE('',*,*,#406,.T.);
#628=ORIENTED_EDGE('',*,*,#403,.T.);
#629=ORIENTED_EDGE('',*,*,#400,.T.);
#630=ORIENTED_EDGE('',*,*,#397,.T.);
#631=ORIENTED_EDGE('',*,*,#370,.T.);
#632=ORIENTED_EDGE('',*,*,#373,.T.);
#633=ORIENTED_EDGE('',*,*,#376,.T.);
#634=ORIENTED_EDGE('',*,*,#379,.T.);
#635=ORIENTED_EDGE('',*,*,#382,.T.);
#636=ORIENTED_EDGE('',*,*,#385,.T.);
#637=ORIENTED_EDGE('',*,*,#388,.T.);
#638=ORIENTED_EDGE('',*,*,#391,.T.);
#639=ORIENTED_EDGE('',*,*,#394,.T.);
#640=ORIENTED_EDGE('',*,*,#468,.T.);
#641=ORIENTED_EDGE('',*,*,#395,.T.);
#642=ORIENTED_EDGE('',*,*,#399,.T.);
#643=ORIENTED_EDGE('',*,*,#402,.T.);
#644=ORIENTED_EDGE('',*,*,#405,.T.);
#645=ORIENTED_EDGE('',*,*,#408,.T.);
#646=ORIENTED_EDGE('',*,*,#411,.T.);
#647=ORIENTED_EDGE('',*,*,#414,.T.);
#648=ORIENTED_EDGE('',*,*,#417,.T.);
#649=ORIENTED_EDGE('',*,*,#420,.T.);
#650=ORIENTED_EDGE('',*,*,#423,.T.);
#651=ORIENTED_EDGE('',*,*,#426,.T.);
#652=ORIENTED_EDGE('',*,*,#429,.T.);
#653=ORIENTED_EDGE('',*,*,#432,.T.);
#654=ORIENTED_EDGE('',*,*,#435,.T.);
#655=ORIENTED_EDGE('',*,*,#438,.T.);
#656=ORIENTED_EDGE('',*,*,#441,.T.);
#657=ORIENTED_EDGE('',*,*,#444,.T.);
#658=ORIENTED_EDGE('',*,*,#447,.T.);
#659=ORIENTED_EDGE('',*,*,#450,.T.);
#660=ORIENTED_EDGE('',*,*,#453,.T.);
#661=ORIENTED_EDGE('',*,*,#456,.T.);
#662=ORIENTED_EDGE('',*,*,#459,.T.);
#663=ORIENTED_EDGE('',*,*,#462,.T.);
#664=ORIENTED_EDGE('',*,*,#465,.T.);
#665=ORIENTED_EDGE('',*,*,#368,.T.);
#666=ORIENTED_EDGE('',*,*,#371,.T.);
#667=ORIENTED_EDGE('',*,*,#374,.T.);
#668=ORIENTED_EDGE('',*,*,#377,.T.);
#669=ORIENTED_EDGE('',*,*,#380,.T.);
#670=ORIENTED_EDGE('',*,*,#383,.T.);
#671=ORIENTED_EDGE('',*,*,#386,.T.);
#672=ORIENTED_EDGE('',*,*,#389,.T.);
#673=ORIENTED_EDGE('',*,*,#392,.T.);
#674=CYLINDRICAL_SURFACE('',#745,2.24999999999994);
#675=CYLINDRICAL_SURFACE('',#748,2.25000000000001);
#676=CYLINDRICAL_SURFACE('',#751,2.25000000000001);
#677=CYLINDRICAL_SURFACE('',#754,2.25000000000009);
#678=CYLINDRICAL_SURFACE('',#757,2.25000000000009);
#679=CYLINDRICAL_SURFACE('',#760,2.25);
#680=CYLINDRICAL_SURFACE('',#763,2.25000000000001);
#681=CYLINDRICAL_SURFACE('',#766,2.24999999999994);
#682=CYLINDRICAL_SURFACE('',#769,2.25000000000009);
#683=CYLINDRICAL_SURFACE('',#772,18.8750000000003);
#684=CYLINDRICAL_SURFACE('',#775,10.0000000000007);
#685=CYLINDRICAL_SURFACE('',#779,10.0000000000007);
#686=CYLINDRICAL_SURFACE('',#783,10.0000000000004);
#687=CYLINDRICAL_SURFACE('',#789,10.);
#688=CYLINDRICAL_SURFACE('',#793,9.99999999999994);
#689=CYLINDRICAL_SURFACE('',#797,9.99999999999984);
#690=CYLINDRICAL_SURFACE('',#801,10.0000000000002);
#691=CYLINDRICAL_SURFACE('',#807,10.0000000000003);
#692=CYLINDRICAL_SURFACE('',#811,18.8749999999999);
#693=CYLINDRICAL_SURFACE('',#814,10.0000000000007);
#694=CYLINDRICAL_SURFACE('',#818,10.0000000000003);
#695=ADVANCED_FACE('',(#48),#674,.F.);
#696=ADVANCED_FACE('',(#49),#675,.F.);
#697=ADVANCED_FACE('',(#50),#676,.F.);
#698=ADVANCED_FACE('',(#51),#677,.F.);
#699=ADVANCED_FACE('',(#52),#678,.F.);
#700=ADVANCED_FACE('',(#53),#679,.F.);
#701=ADVANCED_FACE('',(#54),#680,.F.);
#702=ADVANCED_FACE('',(#55),#681,.F.);
#703=ADVANCED_FACE('',(#56),#682,.F.);
#704=ADVANCED_FACE('',(#57),#683,.F.);
#705=ADVANCED_FACE('',(#58),#684,.T.);
#706=ADVANCED_FACE('',(#59),#33,.T.);
#707=ADVANCED_FACE('',(#60),#685,.F.);
#708=ADVANCED_FACE('',(#61),#34,.T.);
#709=ADVANCED_FACE('',(#62),#686,.T.);
#710=ADVANCED_FACE('',(#63),#35,.T.);
#711=ADVANCED_FACE('',(#64),#36,.T.);
#712=ADVANCED_FACE('',(#65),#37,.T.);
#713=ADVANCED_FACE('',(#66),#687,.T.);
#714=ADVANCED_FACE('',(#67),#38,.T.);
#715=ADVANCED_FACE('',(#68),#688,.F.);
#716=ADVANCED_FACE('',(#69),#39,.T.);
#717=ADVANCED_FACE('',(#70),#689,.F.);
#718=ADVANCED_FACE('',(#71),#40,.T.);
#719=ADVANCED_FACE('',(#72),#690,.T.);
#720=ADVANCED_FACE('',(#73),#41,.T.);
#721=ADVANCED_FACE('',(#74),#42,.T.);
#722=ADVANCED_FACE('',(#75),#43,.T.);
#723=ADVANCED_FACE('',(#76),#691,.T.);
#724=ADVANCED_FACE('',(#77),#44,.T.);
#725=ADVANCED_FACE('',(#78),#692,.F.);
#726=ADVANCED_FACE('',(#79),#693,.T.);
#727=ADVANCED_FACE('',(#80),#45,.T.);
#728=ADVANCED_FACE('',(#81),#694,.T.);
#729=ADVANCED_FACE('',(#82,#15,#16,#17,#18,#19,#20,#21,#22,#23),#46,.T.);
#730=ADVANCED_FACE('',(#83,#24,#25,#26,#27,#28,#29,#30,#31,#32),#47,.F.);
#731=CLOSED_SHELL('',(#695,#696,#697,#698,#699,#700,#701,#702,#703,#704,
#705,#706,#707,#708,#709,#710,#711,#712,#713,#714,#715,#716,#717,#718,#719,
#720,#721,#722,#723,#724,#725,#726,#727,#728,#729,#730));
#732=DERIVED_UNIT_ELEMENT(#734,1.);
#733=DERIVED_UNIT_ELEMENT(#1253,-3.);
#734=(
MASS_UNIT()
NAMED_UNIT(*)
SI_UNIT(.KILO.,.GRAM.)
);
#735=DERIVED_UNIT((#732,#733));
#736=MEASURE_REPRESENTATION_ITEM('density measure',
POSITIVE_RATIO_MEASURE(7850.),#735);
#737=PROPERTY_DEFINITION_REPRESENTATION(#742,#739);
#738=PROPERTY_DEFINITION_REPRESENTATION(#743,#740);
#739=REPRESENTATION('material name',(#741),#1250);
#740=REPRESENTATION('density',(#736),#1250);
#741=DESCRIPTIVE_REPRESENTATION_ITEM('Steel','Steel');
#742=PROPERTY_DEFINITION('material property','material name',#1260);
#743=PROPERTY_DEFINITION('material property','density of part',#1260);
#744=AXIS2_PLACEMENT_3D('placement',#1041,#823,#824);
#745=AXIS2_PLACEMENT_3D('',#1042,#825,#826);
#746=AXIS2_PLACEMENT_3D('',#1044,#827,#828);
#747=AXIS2_PLACEMENT_3D('',#1047,#830,#831);
#748=AXIS2_PLACEMENT_3D('',#1048,#832,#833);
#749=AXIS2_PLACEMENT_3D('',#1050,#834,#835);
#750=AXIS2_PLACEMENT_3D('',#1053,#837,#838);
#751=AXIS2_PLACEMENT_3D('',#1054,#839,#840);
#752=AXIS2_PLACEMENT_3D('',#1056,#841,#842);
#753=AXIS2_PLACEMENT_3D('',#1059,#844,#845);
#754=AXIS2_PLACEMENT_3D('',#1060,#846,#847);
#755=AXIS2_PLACEMENT_3D('',#1062,#848,#849);
#756=AXIS2_PLACEMENT_3D('',#1065,#851,#852);
#757=AXIS2_PLACEMENT_3D('',#1066,#853,#854);
#758=AXIS2_PLACEMENT_3D('',#1068,#855,#856);
#759=AXIS2_PLACEMENT_3D('',#1071,#858,#859);
#760=AXIS2_PLACEMENT_3D('',#1072,#860,#861);
#761=AXIS2_PLACEMENT_3D('',#1074,#862,#863);
#762=AXIS2_PLACEMENT_3D('',#1077,#865,#866);
#763=AXIS2_PLACEMENT_3D('',#1078,#867,#868);
#764=AXIS2_PLACEMENT_3D('',#1080,#869,#870);
#765=AXIS2_PLACEMENT_3D('',#1083,#872,#873);
#766=AXIS2_PLACEMENT_3D('',#1084,#874,#875);
#767=AXIS2_PLACEMENT_3D('',#1086,#876,#877);
#768=AXIS2_PLACEMENT_3D('',#1089,#879,#880);
#769=AXIS2_PLACEMENT_3D('',#1090,#881,#882);
#770=AXIS2_PLACEMENT_3D('',#1092,#883,#884);
#771=AXIS2_PLACEMENT_3D('',#1095,#886,#887);
#772=AXIS2_PLACEMENT_3D('',#1096,#888,#889);
#773=AXIS2_PLACEMENT_3D('',#1099,#890,#891);
#774=AXIS2_PLACEMENT_3D('',#1103,#893,#894);
#775=AXIS2_PLACEMENT_3D('',#1105,#896,#897);
#776=AXIS2_PLACEMENT_3D('',#1107,#898,#899);
#777=AXIS2_PLACEMENT_3D('',#1109,#900,#901);
#778=AXIS2_PLACEMENT_3D('',#1111,#903,#904);
#779=AXIS2_PLACEMENT_3D('',#1117,#908,#909);
#780=AXIS2_PLACEMENT_3D('',#1119,#910,#911);
#781=AXIS2_PLACEMENT_3D('',#1121,#912,#913);
#782=AXIS2_PLACEMENT_3D('',#1123,#915,#916);
#783=AXIS2_PLACEMENT_3D('',#1129,#920,#921);
#784=AXIS2_PLACEMENT_3D('',#1131,#922,#923);
#785=AXIS2_PLACEMENT_3D('',#1133,#924,#925);
#786=AXIS2_PLACEMENT_3D('',#1135,#927,#928);
#787=AXIS2_PLACEMENT_3D('',#1141,#932,#933);
#788=AXIS2_PLACEMENT_3D('',#1147,#937,#938);
#789=AXIS2_PLACEMENT_3D('',#1153,#942,#943);
#790=AXIS2_PLACEMENT_3D('',#1155,#944,#945);
#791=AXIS2_PLACEMENT_3D('',#1157,#946,#947);
#792=AXIS2_PLACEMENT_3D('',#1159,#949,#950);
#793=AXIS2_PLACEMENT_3D('',#1165,#954,#955);
#794=AXIS2_PLACEMENT_3D('',#1167,#956,#957);
#795=AXIS2_PLACEMENT_3D('',#1169,#958,#959);
#796=AXIS2_PLACEMENT_3D('',#1171,#961,#962);
#797=AXIS2_PLACEMENT_3D('',#1177,#966,#967);
#798=AXIS2_PLACEMENT_3D('',#1179,#968,#969);
#799=AXIS2_PLACEMENT_3D('',#1181,#970,#971);
#800=AXIS2_PLACEMENT_3D('',#1183,#973,#974);
#801=AXIS2_PLACEMENT_3D('',#1189,#978,#979);
#802=AXIS2_PLACEMENT_3D('',#1191,#980,#981);
#803=AXIS2_PLACEMENT_3D('',#1193,#982,#983);
#804=AXIS2_PLACEMENT_3D('',#1195,#985,#986);
#805=AXIS2_PLACEMENT_3D('',#1201,#990,#991);
#806=AXIS2_PLACEMENT_3D('',#1207,#995,#996);
#807=AXIS2_PLACEMENT_3D('',#1213,#1000,#1001);
#808=AXIS2_PLACEMENT_3D('',#1215,#1002,#1003);
#809=AXIS2_PLACEMENT_3D('',#1217,#1004,#1005);
#810=AXIS2_PLACEMENT_3D('',#1219,#1007,#1008);
#811=AXIS2_PLACEMENT_3D('',#1225,#1012,#1013);
#812=AXIS2_PLACEMENT_3D('',#1227,#1014,#1015);
#813=AXIS2_PLACEMENT_3D('',#1229,#1016,#1017);
#814=AXIS2_PLACEMENT_3D('',#1231,#1019,#1020);
#815=AXIS2_PLACEMENT_3D('',#1233,#1021,#1022);
#816=AXIS2_PLACEMENT_3D('',#1235,#1023,#1024);
#817=AXIS2_PLACEMENT_3D('',#1237,#1026,#1027);
#818=AXIS2_PLACEMENT_3D('',#1243,#1031,#1032);
#819=AXIS2_PLACEMENT_3D('',#1244,#1033,#1034);
#820=AXIS2_PLACEMENT_3D('',#1245,#1035,#1036);
#821=AXIS2_PLACEMENT_3D('',#1246,#1037,#1038);
#822=AXIS2_PLACEMENT_3D('',#1247,#1039,#1040);
#823=DIRECTION('axis',(0.,0.,1.));
#824=DIRECTION('refdir',(1.,0.,0.));
#825=DIRECTION('center_axis',(0.,0.,1.));
#826=DIRECTION('ref_axis',(-1.,0.,0.));
#827=DIRECTION('center_axis',(0.,0.,1.));
#828=DIRECTION('ref_axis',(-1.,0.,0.));
#829=DIRECTION('',(0.,0.,1.));
#830=DIRECTION('center_axis',(0.,0.,-1.));
#831=DIRECTION('ref_axis',(-1.,0.,0.));
#832=DIRECTION('center_axis',(0.,0.,1.));
#833=DIRECTION('ref_axis',(-1.,0.,0.));
#834=DIRECTION('center_axis',(0.,0.,1.));
#835=DIRECTION('ref_axis',(-1.,0.,0.));
#836=DIRECTION('',(0.,0.,1.));
#837=DIRECTION('center_axis',(0.,0.,-1.));
#838=DIRECTION('ref_axis',(-1.,0.,0.));
#839=DIRECTION('center_axis',(0.,0.,1.));
#840=DIRECTION('ref_axis',(-1.,0.,0.));
#841=DIRECTION('center_axis',(0.,0.,1.));
#842=DIRECTION('ref_axis',(-1.,0.,0.));
#843=DIRECTION('',(0.,0.,1.));
#844=DIRECTION('center_axis',(0.,0.,-1.));
#845=DIRECTION('ref_axis',(-1.,0.,0.));
#846=DIRECTION('center_axis',(0.,0.,1.));
#847=DIRECTION('ref_axis',(-1.,0.,0.));
#848=DIRECTION('center_axis',(0.,0.,1.));
#849=DIRECTION('ref_axis',(-1.,0.,0.));
#850=DIRECTION('',(0.,0.,1.));
#851=DIRECTION('center_axis',(0.,0.,-1.));
#852=DIRECTION('ref_axis',(-1.,0.,0.));
#853=DIRECTION('center_axis',(0.,0.,1.));
#854=DIRECTION('ref_axis',(-1.,0.,0.));
#855=DIRECTION('center_axis',(0.,0.,1.));
#856=DIRECTION('ref_axis',(-1.,0.,0.));
#857=DIRECTION('',(0.,0.,1.));
#858=DIRECTION('center_axis',(0.,0.,-1.));
#859=DIRECTION('ref_axis',(-1.,0.,0.));
#860=DIRECTION('center_axis',(0.,0.,1.));
#861=DIRECTION('ref_axis',(-1.,0.,0.));
#862=DIRECTION('center_axis',(0.,0.,1.));
#863=DIRECTION('ref_axis',(-1.,0.,0.));
#864=DIRECTION('',(0.,0.,1.));
#865=DIRECTION('center_axis',(0.,0.,-1.));
#866=DIRECTION('ref_axis',(-1.,0.,0.));
#867=DIRECTION('center_axis',(0.,0.,1.));
#868=DIRECTION('ref_axis',(-1.,0.,0.));
#869=DIRECTION('center_axis',(0.,0.,1.));
#870=DIRECTION('ref_axis',(-1.,0.,0.));
#871=DIRECTION('',(0.,0.,1.));
#872=DIRECTION('center_axis',(0.,0.,-1.));
#873=DIRECTION('ref_axis',(-1.,0.,0.));
#874=DIRECTION('center_axis',(0.,0.,1.));
#875=DIRECTION('ref_axis',(-1.,0.,0.));
#876=DIRECTION('center_axis',(0.,0.,1.));
#877=DIRECTION('ref_axis',(-1.,0.,0.));
#878=DIRECTION('',(0.,0.,1.));
#879=DIRECTION('center_axis',(0.,0.,-1.));
#880=DIRECTION('ref_axis',(-1.,0.,0.));
#881=DIRECTION('center_axis',(0.,0.,1.));
#882=DIRECTION('ref_axis',(-1.,0.,0.));
#883=DIRECTION('center_axis',(0.,0.,1.));
#884=DIRECTION('ref_axis',(-1.,0.,0.));
#885=DIRECTION('',(0.,0.,1.));
#886=DIRECTION('center_axis',(0.,0.,-1.));
#887=DIRECTION('ref_axis',(-1.,0.,0.));
#888=DIRECTION('center_axis',(0.,0.,1.));
#889=DIRECTION('ref_axis',(-0.781714285714302,0.623636733611947,0.));
#890=DIRECTION('center_axis',(0.,0.,1.));
#891=DIRECTION('ref_axis',(-0.781714285714302,0.623636733611947,0.));
#892=DIRECTION('',(0.,0.,1.));
#893=DIRECTION('center_axis',(0.,0.,-1.));
#894=DIRECTION('ref_axis',(-0.781714285714302,0.623636733611947,0.));
#895=DIRECTION('',(0.,0.,1.));
#896=DIRECTION('center_axis',(0.,0.,1.));
#897=DIRECTION('ref_axis',(0.7817142857143,0.623636733611949,0.));
#898=DIRECTION('center_axis',(0.,0.,-1.));
#899=DIRECTION('ref_axis',(0.7817142857143,0.623636733611949,0.));
#900=DIRECTION('center_axis',(0.,0.,1.));
#901=DIRECTION('ref_axis',(0.7817142857143,0.623636733611949,0.));
#902=DIRECTION('',(0.,0.,1.));
#903=DIRECTION('center_axis',(1.,0.,0.));
#904=DIRECTION('ref_axis',(0.,1.,0.));
#905=DIRECTION('',(0.,-1.,0.));
#906=DIRECTION('',(0.,1.,0.));
#907=DIRECTION('',(0.,0.,1.));
#908=DIRECTION('center_axis',(0.,0.,1.));
#909=DIRECTION('ref_axis',(-1.,-2.13162820728015E-14,0.));
#910=DIRECTION('center_axis',(0.,0.,1.));
#911=DIRECTION('ref_axis',(-1.,-2.13162820728015E-14,0.));
#912=DIRECTION('center_axis',(0.,0.,-1.));
#913=DIRECTION('ref_axis',(-1.,-2.13162820728015E-14,0.));
#914=DIRECTION('',(0.,0.,1.));
#915=DIRECTION('center_axis',(0.499999999999999,0.866025403784439,0.));
#916=DIRECTION('ref_axis',(-0.866025403784439,0.499999999999999,0.));
#917=DIRECTION('',(0.866025403784439,-0.499999999999999,0.));
#918=DIRECTION('',(-0.866025403784439,0.499999999999999,0.));
#919=DIRECTION('',(0.,0.,1.));
#920=DIRECTION('center_axis',(0.,0.,1.));
#921=DIRECTION('ref_axis',(0.500000000000022,0.866025403784426,0.));
#922=DIRECTION('center_axis',(0.,0.,-1.));
#923=DIRECTION('ref_axis',(0.500000000000022,0.866025403784426,0.));
#924=DIRECTION('center_axis',(0.,0.,1.));
#925=DIRECTION('ref_axis',(0.500000000000022,0.866025403784426,0.));
#926=DIRECTION('',(0.,0.,1.));
#927=DIRECTION('center_axis',(1.,0.,0.));
#928=DIRECTION('ref_axis',(0.,1.,0.));
#929=DIRECTION('',(0.,-1.,0.));
#930=DIRECTION('',(0.,1.,0.));
#931=DIRECTION('',(0.,0.,1.));
#932=DIRECTION('center_axis',(0.,-1.,0.));
#933=DIRECTION('ref_axis',(1.,0.,0.));
#934=DIRECTION('',(-1.,0.,0.));
#935=DIRECTION('',(1.,0.,0.));
#936=DIRECTION('',(0.,0.,1.));
#937=DIRECTION('center_axis',(-1.,0.,0.));
#938=DIRECTION('ref_axis',(0.,-1.,0.));
#939=DIRECTION('',(0.,1.,0.));
#940=DIRECTION('',(0.,-1.,0.));
#941=DIRECTION('',(0.,0.,1.));
#942=DIRECTION('center_axis',(0.,0.,1.));
#943=DIRECTION('ref_axis',(-1.,7.105427357601E-15,0.));
#944=DIRECTION('center_axis',(0.,0.,-1.));
#945=DIRECTION('ref_axis',(-1.,7.105427357601E-15,0.));
#946=DIRECTION('center_axis',(0.,0.,1.));
#947=DIRECTION('ref_axis',(-1.,7.105427357601E-15,0.));
#948=DIRECTION('',(0.,0.,1.));
#949=DIRECTION('center_axis',(-0.342020143325672,0.939692620785907,0.));
#950=DIRECTION('ref_axis',(-0.939692620785907,-0.342020143325672,0.));
#951=DIRECTION('',(0.939692620785907,0.342020143325672,0.));
#952=DIRECTION('',(-0.939692620785907,-0.342020143325672,0.));
#953=DIRECTION('',(0.,0.,1.));
#954=DIRECTION('center_axis',(0.,0.,1.));
#955=DIRECTION('ref_axis',(0.342020143325662,-0.939692620785911,0.));
#956=DIRECTION('center_axis',(0.,0.,1.));
#957=DIRECTION('ref_axis',(0.342020143325662,-0.939692620785911,0.));
#958=DIRECTION('center_axis',(0.,0.,-1.));
#959=DIRECTION('ref_axis',(0.342020143325662,-0.939692620785911,0.));
#960=DIRECTION('',(0.,0.,1.));
#961=DIRECTION('center_axis',(-1.,1.99473919516598E-16,0.));
#962=DIRECTION('ref_axis',(-1.99473919516598E-16,-1.,0.));
#963=DIRECTION('',(1.99473919516598E-16,1.,0.));
#964=DIRECTION('',(-1.99473919516598E-16,-1.,0.));
#965=DIRECTION('',(0.,0.,1.));
#966=DIRECTION('center_axis',(0.,0.,1.));
#967=DIRECTION('ref_axis',(1.,-1.42108547152022E-14,0.));
#968=DIRECTION('center_axis',(0.,0.,1.));
#969=DIRECTION('ref_axis',(1.,-1.42108547152022E-14,0.));
#970=DIRECTION('center_axis',(0.,0.,-1.));
#971=DIRECTION('ref_axis',(1.,-1.42108547152022E-14,0.));
#972=DIRECTION('',(0.,0.,1.));
#973=DIRECTION('center_axis',(-0.342020143325666,-0.939692620785909,0.));
#974=DIRECTION('ref_axis',(0.939692620785909,-0.342020143325666,0.));
#975=DIRECTION('',(-0.939692620785909,0.342020143325666,0.));
#976=DIRECTION('',(0.939692620785909,-0.342020143325666,0.));
#977=DIRECTION('',(0.,0.,1.));
#978=DIRECTION('center_axis',(0.,0.,1.));
#979=DIRECTION('ref_axis',(-0.342020143325673,-0.939692620785907,0.));
#980=DIRECTION('center_axis',(0.,0.,-1.));
#981=DIRECTION('ref_axis',(-0.342020143325673,-0.939692620785907,0.));
#982=DIRECTION('center_axis',(0.,0.,1.));
#983=DIRECTION('ref_axis',(-0.342020143325673,-0.939692620785907,0.));
#984=DIRECTION('',(0.,0.,1.));
#985=DIRECTION('center_axis',(-1.,0.,0.));
#986=DIRECTION('ref_axis',(0.,-1.,0.));
#987=DIRECTION('',(0.,1.,0.));
#988=DIRECTION('',(0.,-1.,0.));
#989=DIRECTION('',(0.,0.,1.));
#990=DIRECTION('center_axis',(0.,1.,0.));
#991=DIRECTION('ref_axis',(-1.,0.,0.));
#992=DIRECTION('',(1.,0.,0.));
#993=DIRECTION('',(-1.,0.,0.));
#994=DIRECTION('',(0.,0.,1.));
#995=DIRECTION('center_axis',(1.,0.,0.));
#996=DIRECTION('ref_axis',(0.,1.,0.));
#997=DIRECTION('',(0.,-1.,0.));
#998=DIRECTION('',(0.,1.,0.));
#999=DIRECTION('',(0.,0.,1.));
#1000=DIRECTION('center_axis',(0.,0.,1.));
#1001=DIRECTION('ref_axis',(1.,-7.1054273576008E-15,0.));
#1002=DIRECTION('center_axis',(0.,0.,-1.));
#1003=DIRECTION('ref_axis',(1.,-7.1054273576008E-15,0.));
#1004=DIRECTION('center_axis',(0.,0.,1.));
#1005=DIRECTION('ref_axis',(1.,-7.1054273576008E-15,0.));
#1006=DIRECTION('',(0.,0.,1.));
#1007=DIRECTION('center_axis',(0.173648187233555,-0.984807751325354,0.));
#1008=DIRECTION('ref_axis',(0.984807751325354,0.173648187233555,0.));
#1009=DIRECTION('',(-0.984807751325354,-0.173648187233555,0.));
#1010=DIRECTION('',(0.984807751325354,0.173648187233555,0.));
#1011=DIRECTION('',(0.,0.,1.));
#1012=DIRECTION('center_axis',(0.,0.,1.));
#1013=DIRECTION('ref_axis',(-0.173648177666918,0.98480775301221,0.));
#1014=DIRECTION('center_axis',(0.,0.,1.));
#1015=DIRECTION('ref_axis',(-0.173648177666918,0.98480775301221,0.));
#1016=DIRECTION('center_axis',(0.,0.,-1.));
#1017=DIRECTION('ref_axis',(-0.173648177666918,0.98480775301221,0.));
#1018=DIRECTION('',(0.,0.,1.));
#1019=DIRECTION('center_axis',(0.,0.,1.));
#1020=DIRECTION('ref_axis',(0.781714285714304,0.623636733611945,0.));
#1021=DIRECTION('center_axis',(0.,0.,-1.));
#1022=DIRECTION('ref_axis',(0.781714285714304,0.623636733611945,0.));
#1023=DIRECTION('center_axis',(0.,0.,1.));
#1024=DIRECTION('ref_axis',(0.781714285714304,0.623636733611945,0.));
#1025=DIRECTION('',(0.,0.,1.));
#1026=DIRECTION('center_axis',(1.,0.,0.));
#1027=DIRECTION('ref_axis',(0.,1.,0.));
#1028=DIRECTION('',(0.,-1.,0.));
#1029=DIRECTION('',(0.,1.,0.));
#1030=DIRECTION('',(0.,0.,1.));
#1031=DIRECTION('center_axis',(0.,0.,1.));
#1032=DIRECTION('ref_axis',(1.,-2.13162820728024E-14,0.));
#1033=DIRECTION('center_axis',(0.,0.,-1.));
#1034=DIRECTION('ref_axis',(1.,-2.13162820728024E-14,0.));
#1035=DIRECTION('center_axis',(0.,0.,1.));
#1036=DIRECTION('ref_axis',(1.,-2.13162820728024E-14,0.));
#1037=DIRECTION('center_axis',(0.,0.,1.));
#1038=DIRECTION('ref_axis',(1.,0.,0.));
#1039=DIRECTION('center_axis',(0.,0.,1.));
#1040=DIRECTION('ref_axis',(1.,0.,0.));
#1041=CARTESIAN_POINT('',(0.,0.,0.));
#1042=CARTESIAN_POINT('Origin',(709.421912718126,360.895087767396,0.));
#1043=CARTESIAN_POINT('',(711.671912718126,360.895087767396,0.));
#1044=CARTESIAN_POINT('Origin',(709.421912718126,360.895087767396,0.));
#1045=CARTESIAN_POINT('',(711.671912718126,360.895087767396,3.175));
#1046=CARTESIAN_POINT('',(711.671912718126,360.895087767396,0.));
#1047=CARTESIAN_POINT('Origin',(709.421912718126,360.895087767396,3.175));
#1048=CARTESIAN_POINT('Origin',(8.78599999999988,197.449585070998,0.));
#1049=CARTESIAN_POINT('',(11.0359999999999,197.449585070998,0.));
#1050=CARTESIAN_POINT('Origin',(8.78599999999988,197.449585070998,0.));
#1051=CARTESIAN_POINT('',(11.0359999999999,197.449585070998,3.175));
#1052=CARTESIAN_POINT('',(11.0359999999999,197.449585070998,0.));
#1053=CARTESIAN_POINT('Origin',(8.78599999999988,197.449585070998,3.175));
#1054=CARTESIAN_POINT('Origin',(67.5719999999999,341.904160854168,0.));
#1055=CARTESIAN_POINT('',(69.8219999999999,341.904160854168,0.));
#1056=CARTESIAN_POINT('Origin',(67.5719999999999,341.904160854168,0.));
#1057=CARTESIAN_POINT('',(69.8219999999999,341.904160854168,3.175));
#1058=CARTESIAN_POINT('',(69.8219999999999,341.904160854168,0.));
#1059=CARTESIAN_POINT('Origin',(67.5719999999999,341.904160854168,3.175));
#1060=CARTESIAN_POINT('Origin',(713.207912718126,197.449585070998,0.));
#1061=CARTESIAN_POINT('',(715.457912718126,197.449585070998,0.));
#1062=CARTESIAN_POINT('Origin',(713.207912718126,197.449585070998,0.));
#1063=CARTESIAN_POINT('',(715.457912718126,197.449585070998,3.175));
#1064=CARTESIAN_POINT('',(715.457912718126,197.449585070998,0.));
#1065=CARTESIAN_POINT('Origin',(713.207912718126,197.449585070998,3.175));
#1066=CARTESIAN_POINT('Origin',(654.421912718126,404.196357956618,0.));
#1067=CARTESIAN_POINT('',(656.671912718126,404.196357956618,0.));
#1068=CARTESIAN_POINT('Origin',(654.421912718126,404.196357956618,0.));
#1069=CARTESIAN_POINT('',(656.671912718126,404.196357956618,3.175));
#1070=CARTESIAN_POINT('',(656.671912718126,404.196357956618,0.));
#1071=CARTESIAN_POINT('Origin',(654.421912718126,404.196357956618,3.175));
#1072=CARTESIAN_POINT('Origin',(67.5719999999997,33.4228552647213,0.));
#1073=CARTESIAN_POINT('',(69.8219999999997,33.4228552647213,0.));
#1074=CARTESIAN_POINT('Origin',(67.5719999999997,33.4228552647213,0.));
#1075=CARTESIAN_POINT('',(69.8219999999997,33.4228552647213,3.175));
#1076=CARTESIAN_POINT('',(69.8219999999997,33.4228552647213,0.));
#1077=CARTESIAN_POINT('Origin',(67.5719999999997,33.4228552647213,3.175));
#1078=CARTESIAN_POINT('Origin',(70.0719999999998,547.778,0.));
#1079=CARTESIAN_POINT('',(72.3219999999998,547.778,0.));
#1080=CARTESIAN_POINT('Origin',(70.0719999999998,547.778,0.));
#1081=CARTESIAN_POINT('',(72.3219999999998,547.778,3.175));
#1082=CARTESIAN_POINT('',(72.3219999999998,547.778,0.));
#1083=CARTESIAN_POINT('Origin',(70.0719999999998,547.778,3.175));
#1084=CARTESIAN_POINT('Origin',(654.421912718127,33.4228552647213,0.));
#1085=CARTESIAN_POINT('',(656.671912718127,33.4228552647213,0.));
#1086=CARTESIAN_POINT('Origin',(654.421912718127,33.4228552647213,0.));
#1087=CARTESIAN_POINT('',(656.671912718127,33.4228552647213,3.175));
#1088=CARTESIAN_POINT('',(656.671912718127,33.4228552647213,0.));
#1089=CARTESIAN_POINT('Origin',(654.421912718127,33.4228552647213,3.175));
#1090=CARTESIAN_POINT('Origin',(653.421912718126,490.706,0.));
#1091=CARTESIAN_POINT('',(655.671912718126,490.706,0.));
#1092=CARTESIAN_POINT('Origin',(653.421912718126,490.706,0.));
#1093=CARTESIAN_POINT('',(655.671912718126,490.706,3.175));
#1094=CARTESIAN_POINT('',(655.671912718126,490.706,0.));
#1095=CARTESIAN_POINT('Origin',(653.421912718126,490.706,3.175));
#1096=CARTESIAN_POINT('Origin',(671.993912718127,450.706,0.));
#1097=CARTESIAN_POINT('',(657.239055575269,462.477143346926,0.));
#1098=CARTESIAN_POINT('',(657.239055575269,438.934856653075,0.));
#1099=CARTESIAN_POINT('Origin',(671.993912718127,450.706,0.));
#1100=CARTESIAN_POINT('',(657.239055575269,462.477143346926,3.175));
#1101=CARTESIAN_POINT('',(657.239055575269,462.477143346926,0.));
#1102=CARTESIAN_POINT('',(657.239055575269,438.934856653075,3.175));
#1103=CARTESIAN_POINT('Origin',(671.993912718127,450.706,3.175));
#1104=CARTESIAN_POINT('',(657.239055575269,438.934856653075,0.));
#1105=CARTESIAN_POINT('Origin',(649.421912718125,432.698489316955,0.));
#1106=CARTESIAN_POINT('',(659.421912718126,432.698489316955,0.));
#1107=CARTESIAN_POINT('Origin',(649.421912718125,432.698489316955,0.));
#1108=CARTESIAN_POINT('',(659.421912718126,432.698489316955,3.175));
#1109=CARTESIAN_POINT('Origin',(649.421912718125,432.698489316955,3.175));
#1110=CARTESIAN_POINT('',(659.421912718126,432.698489316955,0.));
#1111=CARTESIAN_POINT('Origin',(659.421912718126,416.3207136096,0.));
#1112=CARTESIAN_POINT('',(659.421912718126,416.3207136096,0.));
#1113=CARTESIAN_POINT('',(659.421912718126,432.698489316955,0.));
#1114=CARTESIAN_POINT('',(659.421912718126,416.3207136096,3.175));
#1115=CARTESIAN_POINT('',(659.421912718126,432.698489316955,3.175));
#1116=CARTESIAN_POINT('',(659.421912718126,416.3207136096,0.));
#1117=CARTESIAN_POINT('Origin',(669.421912718127,416.3207136096,0.));
#1118=CARTESIAN_POINT('',(664.421912718126,407.660459571755,0.));
#1119=CARTESIAN_POINT('Origin',(669.421912718127,416.3207136096,0.));
#1120=CARTESIAN_POINT('',(664.421912718126,407.660459571755,3.175));
#1121=CARTESIAN_POINT('Origin',(669.421912718127,416.3207136096,3.175));
#1122=CARTESIAN_POINT('',(664.421912718126,407.660459571755,0.));
#1123=CARTESIAN_POINT('Origin',(716.993912718126,377.308001219918,0.));
#1124=CARTESIAN_POINT('',(716.993912718126,377.308001219918,0.));
#1125=CARTESIAN_POINT('',(664.421912718126,407.660459571755,0.));
#1126=CARTESIAN_POINT('',(716.993912718126,377.308001219918,3.175));
#1127=CARTESIAN_POINT('',(664.421912718126,407.660459571755,3.175));
#1128=CARTESIAN_POINT('',(716.993912718126,377.308001219918,0.));
#1129=CARTESIAN_POINT('Origin',(711.993912718126,368.647747182074,0.));
#1130=CARTESIAN_POINT('',(721.993912718126,368.647747182074,0.));
#1131=CARTESIAN_POINT('Origin',(711.993912718126,368.647747182074,0.));
#1132=CARTESIAN_POINT('',(721.993912718126,368.647747182074,3.175));
#1133=CARTESIAN_POINT('Origin',(711.993912718126,368.647747182074,3.175));
#1134=CARTESIAN_POINT('',(721.993912718126,368.647747182074,0.));
#1135=CARTESIAN_POINT('Origin',(721.993912718126,0.,0.));
#1136=CARTESIAN_POINT('',(721.993912718126,0.,0.));
#1137=CARTESIAN_POINT('',(721.993912718126,368.647747182074,0.));
#1138=CARTESIAN_POINT('',(721.993912718126,0.,3.175));
#1139=CARTESIAN_POINT('',(721.993912718126,368.647747182074,3.175));
#1140=CARTESIAN_POINT('',(721.993912718126,0.,0.));
#1141=CARTESIAN_POINT('Origin',(0.,0.,0.));
#1142=CARTESIAN_POINT('',(0.,0.,0.));
#1143=CARTESIAN_POINT('',(721.993912718126,0.,0.));
#1144=CARTESIAN_POINT('',(0.,0.,3.175));
#1145=CARTESIAN_POINT('',(721.993912718126,0.,3.175));
#1146=CARTESIAN_POINT('',(0.,0.,0.));
#1147=CARTESIAN_POINT('Origin',(0.,315.628777664615,0.));
#1148=CARTESIAN_POINT('',(0.,315.628777664615,0.));
#1149=CARTESIAN_POINT('',(0.,0.,0.));
#1150=CARTESIAN_POINT('',(0.,315.628777664615,3.175));
#1151=CARTESIAN_POINT('',(0.,0.,3.175));
#1152=CARTESIAN_POINT('',(0.,315.628777664615,0.));
#1153=CARTESIAN_POINT('Origin',(10.,315.628777664615,0.));
#1154=CARTESIAN_POINT('',(6.57979856674331,325.025703872474,0.));
#1155=CARTESIAN_POINT('Origin',(10.,315.628777664615,0.));
#1156=CARTESIAN_POINT('',(6.57979856674331,325.025703872474,3.175));
#1157=CARTESIAN_POINT('Origin',(10.,315.628777664615,3.175));
#1158=CARTESIAN_POINT('',(6.57979856674331,325.025703872474,0.));
#1159=CARTESIAN_POINT('Origin',(55.9922014332564,343.010347719455,0.));
#1160=CARTESIAN_POINT('',(55.9922014332564,343.010347719455,0.));
#1161=CARTESIAN_POINT('',(6.57979856674331,325.025703872474,0.));
#1162=CARTESIAN_POINT('',(55.9922014332564,343.010347719455,3.175));
#1163=CARTESIAN_POINT('',(6.57979856674331,325.025703872474,3.175));
#1164=CARTESIAN_POINT('',(55.9922014332564,343.010347719455,0.));
#1165=CARTESIAN_POINT('Origin',(52.5719999999998,352.407273927314,0.));
#1166=CARTESIAN_POINT('',(62.5719999999997,352.407273927314,0.));
#1167=CARTESIAN_POINT('Origin',(52.5719999999998,352.407273927314,0.));
#1168=CARTESIAN_POINT('',(62.5719999999998,352.407273927314,3.175));
#1169=CARTESIAN_POINT('Origin',(52.5719999999998,352.407273927314,3.175));
#1170=CARTESIAN_POINT('',(62.5719999999997,352.407273927314,0.));
#1171=CARTESIAN_POINT('Origin',(62.5719999999998,530.511443505477,0.));
#1172=CARTESIAN_POINT('',(62.5719999999998,530.511443505477,0.));
#1173=CARTESIAN_POINT('',(62.5719999999998,352.407273927314,0.));
#1174=CARTESIAN_POINT('',(62.5719999999998,530.511443505477,3.175));
#1175=CARTESIAN_POINT('',(62.5719999999998,352.407273927314,3.175));
#1176=CARTESIAN_POINT('',(62.5719999999998,530.511443505477,0.));
#1177=CARTESIAN_POINT('Origin',(52.572,530.511443505477,0.));
#1178=CARTESIAN_POINT('',(55.9922014332564,539.908369713336,0.));
#1179=CARTESIAN_POINT('Origin',(52.572,530.511443505477,0.));
#1180=CARTESIAN_POINT('',(55.9922014332565,539.908369713336,3.175));
#1181=CARTESIAN_POINT('Origin',(52.572,530.511443505477,3.175));
#1182=CARTESIAN_POINT('',(55.9922014332564,539.908369713336,0.));
#1183=CARTESIAN_POINT('Origin',(6.57979856674339,557.893013560317,0.));
#1184=CARTESIAN_POINT('',(6.57979856674339,557.893013560317,0.));
#1185=CARTESIAN_POINT('',(55.9922014332564,539.908369713336,0.));
#1186=CARTESIAN_POINT('',(6.57979856674345,557.893013560317,3.175));
#1187=CARTESIAN_POINT('',(55.9922014332564,539.908369713336,3.175));
#1188=CARTESIAN_POINT('',(6.57979856674339,557.893013560317,0.));
#1189=CARTESIAN_POINT('Origin',(10.0000000000002,567.289939768176,0.));
#1190=CARTESIAN_POINT('',(-1.99840144432528E-14,567.289939768176,0.));
#1191=CARTESIAN_POINT('Origin',(10.0000000000002,567.289939768176,0.));
#1192=CARTESIAN_POINT('',(0.,567.289939768176,3.175));
#1193=CARTESIAN_POINT('Origin',(10.0000000000002,567.289939768176,3.175));
#1194=CARTESIAN_POINT('',(-1.99840144432528E-14,567.289939768176,0.));
#1195=CARTESIAN_POINT('Origin',(0.,579.128,0.));
#1196=CARTESIAN_POINT('',(0.,579.128,0.));
#1197=CARTESIAN_POINT('',(0.,567.289939768176,0.));
#1198=CARTESIAN_POINT('',(0.,579.128,3.175));
#1199=CARTESIAN_POINT('',(0.,567.289939768176,3.175));
#1200=CARTESIAN_POINT('',(0.,579.128,0.));
#1201=CARTESIAN_POINT('Origin',(721.993912718126,579.128,0.));
#1202=CARTESIAN_POINT('',(721.993912718126,579.128,0.));
#1203=CARTESIAN_POINT('',(0.,579.128,0.));
#1204=CARTESIAN_POINT('',(721.993912718126,579.128,3.175));
#1205=CARTESIAN_POINT('',(0.,579.128,3.175));
#1206=CARTESIAN_POINT('',(721.993912718126,579.128,0.));
#1207=CARTESIAN_POINT('Origin',(721.993912718126,567.079523097411,0.));
#1208=CARTESIAN_POINT('',(721.993912718126,567.079523097411,0.));
#1209=CARTESIAN_POINT('',(721.993912718126,579.128,0.));
#1210=CARTESIAN_POINT('',(721.993912718126,567.079523097411,3.175));
#1211=CARTESIAN_POINT('',(721.993912718126,579.128,3.175));
#1212=CARTESIAN_POINT('',(721.993912718126,567.079523097411,0.));
#1213=CARTESIAN_POINT('Origin',(711.993912718126,567.079523097411,0.));
#1214=CARTESIAN_POINT('',(713.730394590462,557.231445584157,0.));
#1215=CARTESIAN_POINT('Origin',(711.993912718126,567.079523097411,0.));
#1216=CARTESIAN_POINT('',(713.730394590462,557.231445584157,3.175));
#1217=CARTESIAN_POINT('Origin',(711.993912718126,567.079523097411,3.175));
#1218=CARTESIAN_POINT('',(713.730394590462,557.231445584157,0.));
#1219=CARTESIAN_POINT('Origin',(668.716303364663,549.294246338105,0.));
#1220=CARTESIAN_POINT('',(668.716303364663,549.294246338105,0.));
#1221=CARTESIAN_POINT('',(713.730394590462,557.231445584157,0.));
#1222=CARTESIAN_POINT('',(668.716303364663,549.294246338105,3.175));
#1223=CARTESIAN_POINT('',(713.730394590462,557.231445584157,3.175));
#1224=CARTESIAN_POINT('',(668.716303364663,549.294246338105,0.));
#1225=CARTESIAN_POINT('Origin',(671.993912718126,530.706,0.));
#1226=CARTESIAN_POINT('',(657.239055575269,518.934856653075,0.));
#1227=CARTESIAN_POINT('Origin',(671.993912718126,530.706,0.));
#1228=CARTESIAN_POINT('',(657.239055575269,518.934856653075,3.175));
#1229=CARTESIAN_POINT('Origin',(671.993912718126,530.706,3.175));
#1230=CARTESIAN_POINT('',(657.239055575269,518.934856653075,0.));
#1231=CARTESIAN_POINT('Origin',(649.421912718125,512.698489316955,0.));
#1232=CARTESIAN_POINT('',(659.421912718126,512.698489316955,0.));
#1233=CARTESIAN_POINT('Origin',(649.421912718125,512.698489316955,0.));
#1234=CARTESIAN_POINT('',(659.421912718126,512.698489316955,3.175));
#1235=CARTESIAN_POINT('Origin',(649.421912718125,512.698489316955,3.175));
#1236=CARTESIAN_POINT('',(659.421912718126,512.698489316955,0.));
#1237=CARTESIAN_POINT('Origin',(659.421912718126,468.713510683046,0.));
#1238=CARTESIAN_POINT('',(659.421912718126,468.713510683046,0.));
#1239=CARTESIAN_POINT('',(659.421912718126,512.698489316955,0.));
#1240=CARTESIAN_POINT('',(659.421912718126,468.713510683046,3.175));
#1241=CARTESIAN_POINT('',(659.421912718126,512.698489316955,3.175));
#1242=CARTESIAN_POINT('',(659.421912718126,468.713510683046,0.));
#1243=CARTESIAN_POINT('Origin',(649.421912718126,468.713510683046,0.));
#1244=CARTESIAN_POINT('Origin',(649.421912718126,468.713510683046,0.));
#1245=CARTESIAN_POINT('Origin',(649.421912718126,468.713510683046,3.175));
#1246=CARTESIAN_POINT('Origin',(360.996956359063,289.564,3.175));
#1247=CARTESIAN_POINT('Origin',(360.996956359063,289.564,0.));
#1248=UNCERTAINTY_MEASURE_WITH_UNIT(LENGTH_MEASURE(0.01),#1252,
'DISTANCE_ACCURACY_VALUE',
'Maximum model space distance between geometric entities at asserted c
onnectivities');
#1249=UNCERTAINTY_MEASURE_WITH_UNIT(LENGTH_MEASURE(0.01),#1252,
'DISTANCE_ACCURACY_VALUE',
'Maximum model space distance between geometric entities at asserted c
onnectivities');
#1250=(
GEOMETRIC_REPRESENTATION_CONTEXT(3)
GLOBAL_UNCERTAINTY_ASSIGNED_CONTEXT((#1248))
GLOBAL_UNIT_ASSIGNED_CONTEXT((#1252,#1254,#1255))
REPRESENTATION_CONTEXT('','3D')
);
#1251=(
GEOMETRIC_REPRESENTATION_CONTEXT(3)
GLOBAL_UNCERTAINTY_ASSIGNED_CONTEXT((#1249))
GLOBAL_UNIT_ASSIGNED_CONTEXT((#1252,#1254,#1255))
REPRESENTATION_CONTEXT('','3D')
);
#1252=(
LENGTH_UNIT()
NAMED_UNIT(*)
SI_UNIT(.MILLI.,.METRE.)
);
#1253=(
LENGTH_UNIT()
NAMED_UNIT(*)
SI_UNIT($,.METRE.)
);
#1254=(
NAMED_UNIT(*)
PLANE_ANGLE_UNIT()
SI_UNIT($,.RADIAN.)
);
#1255=(
NAMED_UNIT(*)
SI_UNIT($,.STERADIAN.)
SOLID_ANGLE_UNIT()
);
#1256=SHAPE_DEFINITION_REPRESENTATION(#1257,#1258);
#1257=PRODUCT_DEFINITION_SHAPE('',$,#1260);
#1258=SHAPE_REPRESENTATION('',(#744),#1250);
#1259=PRODUCT_DEFINITION_CONTEXT('part definition',#1264,'design');
#1260=PRODUCT_DEFINITION(
'Education PolyVent acrylic lid : top flat patten',
'Education PolyVent acrylic lid : top flat patten v4',#1261,#1259);
#1261=PRODUCT_DEFINITION_FORMATION('',$,#1266);
#1262=PRODUCT_RELATED_PRODUCT_CATEGORY(
'Education PolyVent acrylic lid : top flat patten v4',
'Education PolyVent acrylic lid : top flat patten v4',(#1266));
#1263=APPLICATION_PROTOCOL_DEFINITION('international standard',
'automotive_design',2009,#1264);
#1264=APPLICATION_CONTEXT(
'Core Data for Automotive Mechanical Design Process');
#1265=PRODUCT_CONTEXT('part definition',#1264,'mechanical');
#1266=PRODUCT('Education PolyVent acrylic lid : top flat patten',
'Education PolyVent acrylic lid : top flat patten v4',$,(#1265));
#1267=PRESENTATION_STYLE_ASSIGNMENT((#1268));
#1268=SURFACE_STYLE_USAGE(.BOTH.,#1269);
#1269=SURFACE_SIDE_STYLE('',(#1270));
#1270=SURFACE_STYLE_FILL_AREA(#1271);
#1271=FILL_AREA_STYLE('Steel - Satin',(#1272));
#1272=FILL_AREA_STYLE_COLOUR('Steel - Satin',#1273);
#1273=COLOUR_RGB('Steel - Satin',0.627450980392157,0.627450980392157,0.627450980392157);
ENDSEC;
END-ISO-10303-21;
